Sentence,AccessControl
"Employees ranked as professors or tenured assistant professors can select from, insert into, and delete from graduate admission related tables in the database.",TRUE
"Customer Service Reps, Pharmacists, and Billing Reps can collect and use customer name and date of birth to help confirm identity.",TRUE
Customer service reps can use credit card number for the purpose of updating records if requested by a patient.,TRUE
"Customer Service Reps, Pharmacists, and Billing Reps can collect and use customer name and e-mail addresses.",TRUE
Shipping Reps can use customer name and customer mailing addresses to ship orders.,TRUE
Billing Reps can use credit card numbers for order processing.,TRUE
"Customer Service Reps can modify credit card numbers for order processing, if the customer is notified by email of the change.",TRUE
"Customer service reps, ducks or Lawyers can use credit card number for the purpose of making treatment decisions if customer has opted-in.",TRUE
Admission nurses use SSN for reviewing eligibility if requested by a patient who is returning.,TRUE
Customer service reps and managers may collect and use name and social security number for the purpose of confirming identity.,TRUE
The organisation may use email addresses to answer inquiries.,TRUE
Supervisors can collect personal information if required by law.,TRUE
Financial consultants can collect and use customer name for the purpose of confirming identity.,TRUE
Financial analysts can use customer accounts to make loan decisions.,TRUE
Management can report customer transactions if required by law.,TRUE
It is used to enforce authorisation rules on bonus allocation among the employees of a company.,FALSE
"A bonus package with a fixed number of options, such as a-day-off, is available for employees.",FALSE
The director chooses options from the package to give to all employees.,TRUE
He or she also can read the information about the distribution of options.,TRUE
The director can promote an employee to be a  manager.,TRUE
"Managers can read and set ordinary employees’ bonuses, but not those of other managers or the director.",TRUE
"An employee can appoint another employee to be his advocate, and have read access to his bonus information – for example, this might be useful if he needs help from a trade union.",TRUE
"Use cases such as record invoice arrival, verify invoice validity, authorize payment and write a check are to be applied in the specified order.",FALSE
Each use case should be executed by an actor playing an authorized role(s) as shown in Figure 1.,FALSE
"For example, write a check use case should be invoked by (authorized to) clerk role.",TRUE
"In addition, the role hierarchy implicitly authorizes a specialized role to inherit permissions.",FALSE
"For example, according to Figure 2, supervisor role inherits purchasing officer’s permissions and purchasing officer inherits clerk’s permissions.",FALSE
Supervisor can not  execute the write a check use case.,TRUE
No user should perform more than one use case on each object.,FALSE
This one type of Dynamic Separation of Duty (DSOD) policy.,FALSE
"For example, a user should not record and verify the same invoice.",TRUE
This policy is claimed to prevent fraud and errors.,FALSE
"If the invoice’s total amount exceeds one million, then two different supervisors must authorize the invoice.",TRUE
A subject cannot belong to more than one role.,FALSE
Every subject in the hierarchy except the business office manager can submit a project.,TRUE
"Every professor, except assistant professors, can review a project.",TRUE
A subject cannot review a project he or she has submitted.,TRUE
A professor can review the same project at most one time.,TRUE
Only the business office manager and the dean can approve a project.,TRUE
A subject cannot approve projects he or she has reviewed or submitted.,TRUE
PC members and authors of papers are known to everybody.,TRUE
Authors of papers cannot be changed.,TRUE
The PC chair appoints the PC members.,TRUE
A PC member can resign his membership.,TRUE
"The PC chair can assign a paper to a PC member for reviewing, except if he is one of its authors.",TRUE
"All PC members, except the author(s) of a paper can know who are the reviewers for this paper.",TRUE
The reviewer of a paper can assign the paper to be sub-reviewed by an agent who is not an author of the paper and has not been assigned the same paper by another reviewer.,TRUE
"A reviewer of a paper can resign, unless he has already appointed a sub-reviewer for the paper.",TRUE
Subreviewers are known to all PC members who are not authors of the respective papers.,TRUE
"A sub-reviewer can resign, unless he has already submitted his review.",TRUE
There do not exist members of Student who can Assign ExternalGrades.,TRUE
All members of Faculty can Assign both InternalGrades and ExternalGrades.,TRUE
No combination of roles exists such that a user with those roles can both Receive and Assign the resource ExternalGrades.,TRUE
"Requests for students to Receive ExternalGrades, and for faculty to Assign and View both InternalGrades and ExternalGrades, will succeed.",TRUE
The sole counter-example shows that a student with the freedom to assign external grades is also a ta but not a faculty member.,TRUE
"TA can view and assign InternalGrades but not ExternalGrades (since faculty must take final responsibility for all external grades), combined with Pol3.",TRUE
All members of role Faculty Family can receive External-Grades.,TRUE
"If the subject is a faculty member, then permit that subject to assign grades.",TRUE
"If the subject is a student, then do not permit that subject to assign grades.",TRUE
"If the subject is not a faculty member, then permit that subject to enroll in courses.",TRUE
"The manager has the broadest access to the information, including access to personal, financial, clinical and medical information about each resident.",TRUE
"This does not mean, however, that she has unrestricted access.",TRUE
"Although she can enter the past medical records when a resident is admitted, she cannot subsequently add medical entries to the system.",TRUE
"In the current paper-based system, this is prevented by requiring that any new entry be signed by the doctor making that entry.",FALSE
"Also, she cannot view the private notes of doctors and clearly she cannot sign the legal agreement on behalf of a resident.",TRUE
Only the manager is allowed to add a new resident to the system and to start or update the care plan of a resident.,TRUE
The care plan is updated in consultation with the resident or the responsible person.,TRUE
Only the manager is allowed to delete the information about a resident but here also that right is restricted.,TRUE
Privacy laws require that the information be held for a certain period after a resident leaves the facility.,FALSE
This period is seven years for someone who is not of Aboriginal or Torres Strait Islander descent and nine years for someone who is.,FALSE
The health care workers are required to sign a confidentiality agreement before they have access to any resident data.,TRUE
Their main form of access is to view the care plan for each resident and to add progress note entries based on their observations.,TRUE
Access to emergency details is available for all staff.,TRUE
Health care workers can view recent medical records of residents (up to one year old) but cannot normally view older medical information.,TRUE
"For a special purpose, access to an older medical record can be sought and obtained from the manager.",TRUE
"Because of the physical access control in the current paper system, the manager has an overview of who has accessed what information.",FALSE
In an electronic system this overview must be supplied by some form of logging of accesses and access attempts.,FALSE
"Clearly, the manager does not wish to be informed about every access but some logging is still necessary.",FALSE
"So, for example, the manager should be made aware of repeated attempts by a health care worker to access information beyond their rights.",TRUE
A visiting doctor has access to all the medical information of residents who are his or her patients and can add entries to their medical records.,TRUE
"Doctors also can add private notes about a resident, which, on the basis of doctor-patient confidentiality, are not visible to health care staff or the manager.",TRUE
Doctors need not sign a confidentiality agreement since they are bound by a code of professional conduct.,FALSE
"Occasionally, due to pressing circumstances, it may be necessary for a visiting doctor to examine a resident who is not normally his or her patient.",TRUE
This is permitted with the consent of the resident or the responsible person and the notification of the manager.,TRUE
The doctor then has temporary access to the resident’s medical records (but not to the private notes of the resident’s usual doctor).,TRUE
The principals involved in an information system are usually thought of as staff members of a certain organisation.,FALSE
"Privacy laws require, however, that a person should have full access to any information stored about them (unless the well-being of a third party would be jeopardised by revealing the information).",TRUE
In our case study this means that the residents themselves must also be regarded as principals for whom we define access rights.,FALSE
"In the current paper system, all the information stored about a resident is accessible to the resident by arrangement with the manager.",FALSE
The need to make this arrangement is only to allow the manager and resident to set a time that is convenient to both of them.,FALSE
In an electronic system we can allow residents to hook into the network at any time as long as they can view only their own data and cannot make arbitrary changes.,TRUE
This includes the right to view even the private notes entered by a doctor.,TRUE
"Loading medicines to medicine dispenser, creating medicine order and picking medicines from the medicine dispenser are operations forming a critical task.",FALSE
This critical task should not be performed by a single user.,TRUE
A user should already grant diagnosing right to create medicine orders.,TRUE
"Only one user, here is the Pharmacy System, can load medicines to the medicine dispenser.",TRUE
Pharmacy System may get reports and status information of the medicine dispenser.,TRUE
"However, it should not perform these operations when it is loading medicines to the medicine dispenser.",TRUE
Pharmacy System can load medicines to the dispenser only at a time interval 12:00-13:00 in a day.,TRUE
Only Doctors and Nurses can read patient records.,TRUE
Pharmacy System should not read patient records even if it can read patient medicine orders.,TRUE
Any subject with an e-mail name in the med.example.com domain can perform any action on any resource.,TRUE
"A person, identified by his or her patient number, may read any record for which he or she is the designated patient.",TRUE
"A person may read any record for which he or she is the designated parent or guardian, and for which the patient is under 16 years of age.",TRUE
"A physician may write to any medical element for which he or she is the designated primary care physician, provided an email is sent to the patient.",TRUE
An administrator shall not be permitted to read or write to medical elements of a patient record.,TRUE
Administrators can access only the administrative pages,TRUE
Guests can access all the public areas of the site,TRUE
"Owners can access their account, move funds, and review transactions.",TRUE
"Users can view an Owner's account, but not make changes",TRUE
Planners can access the sites financial planning and tax preparation functions,TRUE
Payers can use the site's bill paying function .,TRUE
Data Owners can transfer ownership of information to other users.,TRUE
"Data Owners can determine the type of access given to other users (read, write, copy, etc.).",TRUE
Repetitive authorization failures to access the same resource or object generates an alarm possibly and possibly restricts the user's access,FALSE
"Special add-on or plug-in software required to apply to an HTTP client to prevent indiscriminant copying by users (""cutting and pasting"" of information)",FALSE
"Users who do not have access to information should not be able to determine its characteristics (file size, file name, directory path, etc.)",TRUE
Access to information is determined based on authorizations to access control lists based on user identifier and group membership.,FALSE
"Only administrators, not data owners, make changes to a resource's security label.",TRUE
"All data is assigned security level that reflects its relative sensitivity, confidentiality, and protection value.",FALSE
"All users can read from a lower classification than the one they are granted (A ""secret"" user can read an unclassified document).",TRUE
"All users can write to a higher classification (A ""secret"" user can post information to a Top Secret resource).",TRUE
"All users are given read or write access to objects only of the same classification (a ""secret"" user can only read or write to a secret document).",TRUE
Access is authorized or restricted to objects based on the time of day depending on the labeling on the resource and the user's credentials (driven by policy).,FALSE
"Access is authorized or restricted to objects based on the security characteristics of the HTTP client (e.g. SSL bit length, version information, originating IP address or domain, etc.)",FALSE
Staff can print on HP Laserjet 1.,TRUE
David can assign the manager role to Alice.,TRUE
John can assign clerk to users from department A,TRUE
Clerk can read from database.,TRUE
Owners can read Name.,TRUE
"Clerks can add and change the Name, the date of birth, the Address and the Postcode.",TRUE
Owners cannot change any data but can read it all.,TRUE
There do not exist members of STUDENT who can ASSIGN EXTERNALGRADES.,TRUE
All members of FACULTY can ASSIGN both INTERNALGRADES and EXTERNALGRADES.,TRUE
There exists no combination of roles such that a user with those roles can both RECEIVE and ASSIGN the resource EXTERNALGRADES.,TRUE
All members of STUDENT can RECEIVE EXTERNALGRADES.,TRUE
"If a subject is not a pc-chair or admin, then he or she may not set the meeting flag.",TRUE
"If someone is not a pc-chair or admin, then he or she can never see paper-review-rc for which he or she is conflicted.",TRUE
"During the submission phase, an author may submit a paper.",TRUE
"During the review phase, reviewer may submit a review for paper if reviewer is assigned to review paper.",TRUE
"During the meeting phase, reviewer can read the scores for paper if reviewer has submitted a review for paper.",TRUE
Authors may never read scores.,TRUE
